# WaveFront *.obj file (generated by Cheetah3D)

mtllib GolfBall.mtl

g Golf_ball_LOW_POLY
v -0.002282 0.240116 0.006816
v 0.123955 0.204255 0.006816
v 0.036728 0.204255 -0.113241
v -0.104409 0.204255 -0.067383
v -0.104409 0.204255 0.081016
v 0.036728 0.204255 0.126874
v 0.212484 0.107383 0.006816
v 0.064085 0.107383 -0.197438
v -0.176031 0.107383 -0.119420
v -0.176031 0.107383 0.133053
v 0.064085 0.107383 0.211071
v 0.162964 0.126236 -0.113241
v -0.065400 0.126236 -0.187441
v -0.206536 0.126236 0.006816
v -0.065400 0.126236 0.201074
v 0.162964 0.126236 0.126874
v 0.226082 0.000000 -0.067383
v 0.138855 0.000000 -0.187441
v -0.002282 0.000000 -0.233299
v -0.143418 0.000000 -0.187441
v -0.230645 0.000000 -0.067383
v -0.230645 0.000000 0.081016
v -0.143418 0.000000 0.201074
v -0.002282 0.000000 0.246932
v 0.138855 0.000000 0.201074
v 0.226082 0.000000 0.081016
v 0.063334 0.230976 0.006816
v 0.017995 0.230976 -0.055588
v -0.055366 0.230976 -0.031752
v -0.055366 0.230976 0.045384
v 0.017995 0.230976 0.069220
v 0.084593 0.214766 -0.056302
v -0.035465 0.214766 -0.095311
v -0.109665 0.214766 0.006816
v -0.035465 0.214766 0.108944
v 0.084593 0.214766 0.069934
v 0.174966 0.161984 0.006816
v 0.052491 0.161984 -0.161756
v -0.145678 0.161984 -0.097367
v -0.145678 0.161984 0.111000
v 0.052491 0.161984 0.175389
v 0.150959 0.173749 -0.056302
v -0.014956 0.173749 -0.158429
v -0.163356 0.173749 -0.032193
v -0.089156 0.173749 0.147953
v 0.105101 0.173749 0.133053
v 0.150959 0.173749 0.069934
v 0.105101 0.173749 -0.119420
v -0.089156 0.173749 -0.134320
v -0.163356 0.173749 0.045825
v -0.014956 0.173749 0.172062
v 0.195242 0.121431 -0.055588
v -0.000593 0.121431 -0.200324
v -0.198762 0.121431 -0.058799
v -0.125401 0.121431 0.173404
v 0.118106 0.121431 0.175389
v 0.195242 0.121431 0.069220
v 0.118106 0.121431 -0.161756
v -0.125401 0.121431 -0.159771
v -0.198762 0.121431 0.072432
v -0.000593 0.121431 0.213956
v 0.228050 0.055816 -0.031752
v 0.204651 0.066366 -0.095311
v 0.158793 0.066366 -0.158429
v 0.105575 0.055816 -0.200324
v 0.032215 0.055816 -0.224160
v -0.035465 0.066366 -0.221547
v -0.109665 0.066366 -0.197438
v -0.165954 0.055816 -0.159771
v -0.211293 0.055816 -0.097367
v -0.229722 0.066366 -0.032193
v -0.229722 0.066366 0.045825
v -0.211293 0.055816 0.111000
v -0.165954 0.055816 0.173404
v -0.109665 0.066366 0.211071
v -0.035465 0.066366 0.235180
v 0.032215 0.055816 0.237793
v 0.105575 0.055816 0.213956
v 0.158793 0.066366 0.172062
v 0.204651 0.066366 0.108944
v 0.228050 0.055816 0.045384
v 0.191976 0.000000 -0.134320
v 0.071918 0.000000 -0.221547
v -0.076481 0.000000 -0.221547
v -0.196539 0.000000 -0.134320
v -0.242397 0.000000 0.006816
v -0.196539 0.000000 0.147953
v -0.076481 0.000000 0.235180
v 0.071918 0.000000 0.235180
v 0.191976 0.000000 0.147953
v 0.237834 0.000000 0.006816
v -0.002282 -0.240116 0.006816
v 0.063334 -0.230976 0.006816
v 0.017995 -0.230976 -0.055588
v 0.123955 -0.204255 0.006816
v 0.084593 -0.214766 -0.056302
v 0.036728 -0.204255 -0.113241
v -0.055366 -0.230976 -0.031752
v -0.035465 -0.214766 -0.095311
v -0.104409 -0.204255 -0.067383
v -0.055366 -0.230976 0.045384
v -0.109665 -0.214766 0.006816
v -0.104409 -0.204255 0.081016
v 0.017995 -0.230976 0.069220
v -0.035465 -0.214766 0.108944
v 0.036728 -0.204255 0.126874
v 0.084593 -0.214766 0.069934
v 0.162964 -0.126236 -0.113241
v 0.105101 -0.173749 -0.119420
v 0.150959 -0.173749 -0.056302
v -0.065400 -0.126236 -0.187441
v -0.089156 -0.173749 -0.134320
v -0.014956 -0.173749 -0.158429
v -0.206536 -0.126236 0.006816
v -0.163356 -0.173749 0.045825
v -0.163356 -0.173749 -0.032193
v -0.065400 -0.126236 0.201074
v -0.014956 -0.173749 0.172062
v -0.089156 -0.173749 0.147953
v 0.162964 -0.126236 0.126874
v 0.150959 -0.173749 0.069934
v 0.105101 -0.173749 0.133053
v 0.174966 -0.161984 0.006816
v 0.195242 -0.121431 0.069220
v 0.212484 -0.107383 0.006816
v 0.195242 -0.121431 -0.055588
v 0.052491 -0.161984 -0.161756
v 0.118106 -0.121431 -0.161756
v 0.064085 -0.107383 -0.197438
v -0.000593 -0.121431 -0.200324
v -0.145678 -0.161984 -0.097367
v -0.125401 -0.121431 -0.159771
v -0.176031 -0.107383 -0.119420
v -0.198762 -0.121431 -0.058799
v -0.145678 -0.161984 0.111000
v -0.198762 -0.121431 0.072432
v -0.176031 -0.107383 0.133053
v -0.125401 -0.121431 0.173404
v 0.052491 -0.161984 0.175389
v -0.000593 -0.121431 0.213956
v 0.064085 -0.107383 0.211071
v 0.118106 -0.121431 0.175389
v 0.226082 0.000000 -0.067383
v 0.204651 -0.066366 -0.095311
v 0.228050 -0.055816 -0.031752
v 0.138855 0.000000 -0.187441
v 0.105575 -0.055816 -0.200324
v 0.158793 -0.066366 -0.158429
v -0.002282 0.000000 -0.233299
v -0.035465 -0.066366 -0.221547
v 0.032215 -0.055816 -0.224160
v -0.143418 0.000000 -0.187441
v -0.165954 -0.055816 -0.159771
v -0.109665 -0.066366 -0.197438
v -0.230645 0.000000 -0.067383
v -0.229722 -0.066366 -0.032193
v -0.211293 -0.055816 -0.097367
v -0.230645 0.000000 0.081016
v -0.211293 -0.055816 0.111000
v -0.229722 -0.066366 0.045825
v -0.143418 0.000000 0.201074
v -0.109665 -0.066366 0.211071
v -0.165954 -0.055816 0.173404
v -0.002282 0.000000 0.246932
v 0.032215 -0.055816 0.237793
v -0.035465 -0.066366 0.235180
v 0.138855 0.000000 0.201074
v 0.158793 -0.066366 0.172062
v 0.105575 -0.055816 0.213956
v 0.226082 0.000000 0.081016
v 0.228050 -0.055816 0.045384
v 0.204651 -0.066366 0.108944
v 0.237834 0.000000 0.006816
v 0.191976 0.000000 -0.134320
v 0.071918 0.000000 -0.221547
v -0.076481 0.000000 -0.221547
v -0.196539 0.000000 -0.134320
v -0.242397 0.000000 0.006816
v -0.196539 0.000000 0.147953
v -0.076481 0.000000 0.235180
v 0.071918 0.000000 0.235180
v 0.191976 0.000000 0.147953

vt 0.533082 0.595304
vt 0.600047 0.503134
vt 0.503134 0.503134
vt 0.631381 0.596311
vt 0.689776 0.503134
vt 0.560809 0.680641
vt 0.424729 0.560098
vt 0.454148 0.653898
vt 0.352137 0.612839
vt 0.424730 0.446170
vt 0.344611 0.503134
vt 0.352137 0.393428
vt 0.533082 0.410964
vt 0.454148 0.352370
vt 0.560810 0.325627
vt 0.631381 0.409957
vt 0.728939 0.595940
vt 0.661176 0.689208
vt 0.738167 0.673896
vt 0.484647 0.746566
vt 0.375004 0.710941
vt 0.413359 0.779432
vt 0.265903 0.560777
vt 0.265904 0.445491
vt 0.212616 0.503134
vt 0.375004 0.295327
vt 0.484647 0.259702
vt 0.413359 0.226835
vt 0.661176 0.317059
vt 0.728939 0.410327
vt 0.738168 0.332372
vt 0.767059 0.503134
vt 0.788731 0.414407
vt 0.828116 0.503134
vt 0.788731 0.591861
vt 0.584691 0.754142
vt 0.675773 0.747335
vt 0.603559 0.812210
vt 0.507004 0.802171
vt 0.289614 0.658265
vt 0.324234 0.742785
vt 0.240218 0.694153
vt 0.219929 0.599222
vt 0.289614 0.348002
vt 0.219929 0.407046
vt 0.240218 0.312114
vt 0.324234 0.263483
vt 0.584691 0.252126
vt 0.507004 0.204097
vt 0.603559 0.194058
vt 0.675773 0.258933
vt 0.898311 0.567736
vt 0.848621 0.673557
vt 0.958628 0.650262
vt 0.771977 0.779048
vt 0.686690 0.859007
vt 0.783817 0.890870
vt 0.563811 0.898933
vt 0.447813 0.884375
vt 0.503962 0.981800
vt 0.323801 0.844081
vt 0.221401 0.787677
vt 0.221111 0.889896
vt 0.145457 0.683149
vt 0.123457 0.568330
vt 0.048151 0.651837
vt 0.123457 0.437937
vt 0.145457 0.323118
vt 0.048152 0.354430
vt 0.221401 0.218591
vt 0.323802 0.162187
vt 0.221111 0.116372
vt 0.447813 0.121893
vt 0.563811 0.107335
vt 0.503962 0.024468
vt 0.686690 0.147261
vt 0.771977 0.227220
vt 0.783817 0.115398
vt 0.848621 0.332711
vt 0.898311 0.438533
vt 0.958628 0.356006
vt 0.981086 0.503134
vt 0.890100 0.784281
vt 0.650829 0.957693
vt 0.355326 0.958040
vt 0.116463 0.784067
vt 0.024818 0.503134
vt 0.116463 0.222201
vt 0.355326 0.048228
vt 0.650829 0.048575
vt 0.890100 0.221987

vn 0.080494 0.965478 -0.247736
vn 0.260485 0.965478 -0.000000
vn -0.000000 1.000000 0.000000
vn 0.371280 0.888474 -0.269751
vn 0.525731 0.850651 0.000000
vn 0.162460 0.850651 -0.500000
vn -0.210737 0.965478 -0.153109
vn -0.141816 0.888474 -0.436466
vn -0.425325 0.850651 -0.309017
vn -0.210737 0.965478 0.153109
vn -0.458928 0.888474 0.000000
vn -0.425325 0.850651 0.309017
vn 0.080494 0.965478 0.247736
vn -0.141816 0.888474 0.436466
vn 0.162460 0.850651 0.500000
vn 0.371280 0.888474 0.269751
vn 0.628633 0.729421 -0.269751
vn 0.450807 0.729421 -0.514508
vn 0.688191 0.525731 -0.500000
vn -0.062290 0.729421 -0.681223
vn -0.350019 0.729421 -0.587734
vn -0.262866 0.525731 -0.809017
vn -0.667131 0.729421 -0.151268
vn -0.667131 0.729421 0.151268
vn -0.850651 0.525731 0.000000
vn -0.350019 0.729421 0.587734
vn -0.062290 0.729421 0.681224
vn -0.262865 0.525731 0.809017
vn 0.450807 0.729421 0.514508
vn 0.628633 0.729421 0.269751
vn 0.688191 0.525731 0.500000
vn 0.747057 0.664759 -0.000000
vn 0.827552 0.503771 0.247736
vn 0.894427 0.447214 -0.000000
vn 0.827552 0.503771 -0.247736
vn 0.230853 0.664760 -0.710494
vn 0.491338 0.503771 -0.710494
vn 0.276393 0.447214 -0.850651
vn 0.020117 0.503771 -0.863603
vn -0.604382 0.664760 -0.439109
vn -0.523888 0.503771 -0.686845
vn -0.723607 0.447214 -0.525731
vn -0.815119 0.503771 -0.286000
vn -0.604382 0.664760 0.439109
vn -0.815119 0.503771 0.286000
vn -0.723607 0.447214 0.525731
vn -0.523888 0.503771 0.686845
vn 0.230853 0.664760 0.710494
vn 0.020117 0.503771 0.863603
vn 0.276393 0.447213 0.850651
vn 0.491338 0.503771 0.710494
vn 0.957794 0.243287 -0.153109
vn 0.858097 0.270493 -0.436466
vn 0.943997 0.110939 -0.310743
vn 0.680271 0.270493 -0.681223
vn 0.441590 0.243286 -0.863603
vn 0.587246 0.110939 -0.801770
vn 0.150359 0.243286 -0.958230
vn -0.149938 0.270493 -0.950974
vn -0.003823 0.110939 -0.993820
vn -0.437667 0.270493 -0.857485
vn -0.684876 0.243286 -0.686845
vn -0.581060 0.110939 -0.806264
vn -0.864867 0.243286 -0.439109
vn -0.950764 0.270493 -0.151268
vn -0.946360 0.110939 -0.303471
vn -0.950764 0.270493 0.151268
vn -0.864867 0.243286 0.439109
vn -0.946360 0.110939 0.303471
vn -0.684876 0.243286 0.686845
vn -0.437667 0.270493 0.857486
vn -0.581059 0.110939 0.806265
vn -0.149937 0.270493 0.950974
vn 0.150359 0.243286 0.958230
vn -0.003823 0.110939 0.993820
vn 0.441590 0.243286 0.863603
vn 0.680271 0.270493 0.681223
vn 0.587246 0.110939 0.801770
vn 0.858097 0.270493 0.436466
vn 0.957794 0.243286 0.153109
vn 0.943997 0.110939 0.310743
vn 0.994806 0.101785 -0.000000
vn 0.802378 0.127843 -0.582962
vn 0.307412 0.101784 -0.946117
vn -0.306481 0.127843 -0.943252
vn -0.804815 0.101784 -0.584733
vn -0.991794 0.127843 0.000000
vn -0.804815 0.101785 0.584733
vn -0.306481 0.127843 0.943253
vn 0.307412 0.101785 0.946117
vn 0.802379 0.127843 0.582962
vn 0.080494 -0.965478 -0.247736
vn -0.000000 -1.000000 0.000000
vn 0.260485 -0.965478 -0.000000
vn 0.371280 -0.888474 -0.269751
vn 0.525731 -0.850651 0.000000
vn 0.162460 -0.850651 -0.500000
vn -0.210737 -0.965478 -0.153109
vn -0.141816 -0.888474 -0.436466
vn -0.425325 -0.850651 -0.309017
vn -0.210737 -0.965478 0.153109
vn -0.458928 -0.888474 0.000000
vn -0.425325 -0.850651 0.309017
vn 0.080494 -0.965478 0.247736
vn -0.141816 -0.888474 0.436466
vn 0.162460 -0.850651 0.500000
vn 0.371280 -0.888474 0.269751
vn 0.628633 -0.729421 -0.269751
vn 0.688191 -0.525731 -0.500000
vn 0.450807 -0.729421 -0.514508
vn -0.062290 -0.729421 -0.681223
vn -0.262866 -0.525731 -0.809017
vn -0.350019 -0.729421 -0.587734
vn -0.667131 -0.729421 -0.151268
vn -0.850651 -0.525731 0.000000
vn -0.667131 -0.729421 0.151268
vn -0.350019 -0.729421 0.587734
vn -0.262865 -0.525731 0.809017
vn -0.062290 -0.729421 0.681224
vn 0.450807 -0.729421 0.514508
vn 0.688191 -0.525731 0.500000
vn 0.628633 -0.729421 0.269751
vn 0.747057 -0.664759 -0.000000
vn 0.827552 -0.503771 0.247736
vn 0.894427 -0.447214 -0.000000
vn 0.827552 -0.503771 -0.247736
vn 0.230853 -0.664760 -0.710494
vn 0.491338 -0.503771 -0.710494
vn 0.276393 -0.447214 -0.850651
vn 0.020117 -0.503771 -0.863603
vn -0.604382 -0.664760 -0.439109
vn -0.523888 -0.503771 -0.686845
vn -0.723607 -0.447214 -0.525731
vn -0.815119 -0.503771 -0.286000
vn -0.604382 -0.664760 0.439109
vn -0.815119 -0.503771 0.286000
vn -0.723607 -0.447214 0.525731
vn -0.523888 -0.503771 0.686845
vn 0.230853 -0.664760 0.710494
vn 0.020117 -0.503771 0.863603
vn 0.276393 -0.447213 0.850651
vn 0.491338 -0.503771 0.710494
vn 0.957794 -0.243287 -0.153109
vn 0.943997 -0.110939 -0.310743
vn 0.858097 -0.270493 -0.436466
vn 0.680271 -0.270493 -0.681223
vn 0.587246 -0.110939 -0.801770
vn 0.441590 -0.243286 -0.863603
vn 0.150359 -0.243286 -0.958230
vn -0.003823 -0.110939 -0.993820
vn -0.149938 -0.270493 -0.950974
vn -0.437667 -0.270493 -0.857485
vn -0.581060 -0.110939 -0.806264
vn -0.684876 -0.243286 -0.686845
vn -0.864867 -0.243286 -0.439109
vn -0.946360 -0.110939 -0.303471
vn -0.950764 -0.270493 -0.151268
vn -0.950764 -0.270493 0.151268
vn -0.946360 -0.110939 0.303471
vn -0.864867 -0.243286 0.439109
vn -0.684876 -0.243286 0.686845
vn -0.581059 -0.110939 0.806265
vn -0.437667 -0.270493 0.857486
vn -0.149937 -0.270493 0.950974
vn -0.003823 -0.110939 0.993820
vn 0.150359 -0.243286 0.958230
vn 0.441590 -0.243286 0.863603
vn 0.587246 -0.110939 0.801770
vn 0.680271 -0.270493 0.681223
vn 0.858097 -0.270493 0.436466
vn 0.943997 -0.110939 0.310743
vn 0.957794 -0.243286 0.153109
vn 0.994806 -0.101785 -0.000000
vn 0.802378 -0.127843 -0.582962
vn 0.307412 -0.101784 -0.946117
vn -0.306481 -0.127843 -0.943252
vn -0.804815 -0.101784 -0.584733
vn -0.991794 -0.127843 0.000000
vn -0.804815 -0.101785 0.584733
vn -0.306481 -0.127843 0.943253
vn 0.307412 -0.101785 0.946117
vn 0.802379 -0.127843 0.582962

usemtl default
f 1/3/3 27/2/2 28/1/1
f 27/2/2 2/5/5 32/4/4
f 27/2/2 32/4/4 28/1/1
f 28/1/1 32/4/4 3/6/6
f 1/3/3 28/1/1 29/7/7
f 28/1/1 3/6/6 33/8/8
f 28/1/1 33/8/8 29/7/7
f 29/7/7 33/8/8 4/9/9
f 1/3/3 29/7/7 30/10/10
f 29/7/7 4/9/9 34/11/11
f 29/7/7 34/11/11 30/10/10
f 30/10/10 34/11/11 5/12/12
f 1/3/3 30/10/10 31/13/13
f 30/10/10 5/12/12 35/14/14
f 30/10/10 35/14/14 31/13/13
f 31/13/13 35/14/14 6/15/15
f 1/3/3 31/13/13 27/2/2
f 31/13/13 6/15/15 36/16/16
f 31/13/13 36/16/16 27/2/2
f 27/2/2 36/16/16 2/5/5
f 12/19/19 48/18/18 42/17/17
f 48/18/18 3/6/6 32/4/4
f 48/18/18 32/4/4 42/17/17
f 42/17/17 32/4/4 2/5/5
f 13/22/22 49/21/21 43/20/20
f 49/21/21 4/9/9 33/8/8
f 49/21/21 33/8/8 43/20/20
f 43/20/20 33/8/8 3/6/6
f 14/25/25 50/24/24 44/23/23
f 50/24/24 5/12/12 34/11/11
f 50/24/24 34/11/11 44/23/23
f 44/23/23 34/11/11 4/9/9
f 15/28/28 51/27/27 45/26/26
f 51/27/27 6/15/15 35/14/14
f 51/27/27 35/14/14 45/26/26
f 45/26/26 35/14/14 5/12/12
f 16/31/31 47/30/30 46/29/29
f 47/30/30 2/5/5 36/16/16
f 47/30/30 36/16/16 46/29/29
f 46/29/29 36/16/16 6/15/15
f 2/5/5 47/30/30 37/32/32
f 47/30/30 16/31/31 57/33/33
f 47/30/30 57/33/33 37/32/32
f 37/32/32 57/33/33 7/34/34
f 2/5/5 37/32/32 42/17/17
f 37/32/32 7/34/34 52/35/35
f 37/32/32 52/35/35 42/17/17
f 42/17/17 52/35/35 12/19/19
f 3/6/6 48/18/18 38/36/36
f 48/18/18 12/19/19 58/37/37
f 48/18/18 58/37/37 38/36/36
f 38/36/36 58/37/37 8/38/38
f 3/6/6 38/36/36 43/20/20
f 38/36/36 8/38/38 53/39/39
f 38/36/36 53/39/39 43/20/20
f 43/20/20 53/39/39 13/22/22
f 4/9/9 49/21/21 39/40/40
f 49/21/21 13/22/22 59/41/41
f 49/21/21 59/41/41 39/40/40
f 39/40/40 59/41/41 9/42/42
f 4/9/9 39/40/40 44/23/23
f 39/40/40 9/42/42 54/43/43
f 39/40/40 54/43/43 44/23/23
f 44/23/23 54/43/43 14/25/25
f 5/12/12 50/24/24 40/44/44
f 50/24/24 14/25/25 60/45/45
f 50/24/24 60/45/45 40/44/44
f 40/44/44 60/45/45 10/46/46
f 5/12/12 40/44/44 45/26/26
f 40/44/44 10/46/46 55/47/47
f 40/44/44 55/47/47 45/26/26
f 45/26/26 55/47/47 15/28/28
f 6/15/15 51/27/27 41/48/48
f 51/27/27 15/28/28 61/49/49
f 51/27/27 61/49/49 41/48/48
f 41/48/48 61/49/49 11/50/50
f 6/15/15 41/48/48 46/29/29
f 41/48/48 11/50/50 56/51/51
f 41/48/48 56/51/51 46/29/29
f 46/29/29 56/51/51 16/31/31
f 17/54/54 63/53/53 62/52/52
f 63/53/53 12/19/19 52/35/35
f 63/53/53 52/35/35 62/52/52
f 62/52/52 52/35/35 7/34/34
f 18/57/57 65/56/56 64/55/55
f 65/56/56 8/38/38 58/37/37
f 65/56/56 58/37/37 64/55/55
f 64/55/55 58/37/37 12/19/19
f 19/60/60 67/59/59 66/58/58
f 67/59/59 13/22/22 53/39/39
f 67/59/59 53/39/39 66/58/58
f 66/58/58 53/39/39 8/38/38
f 20/63/63 69/62/62 68/61/61
f 69/62/62 9/42/42 59/41/41
f 69/62/62 59/41/41 68/61/61
f 68/61/61 59/41/41 13/22/22
f 21/66/66 71/65/65 70/64/64
f 71/65/65 14/25/25 54/43/43
f 71/65/65 54/43/43 70/64/64
f 70/64/64 54/43/43 9/42/42
f 22/69/69 73/68/68 72/67/67
f 73/68/68 10/46/46 60/45/45
f 73/68/68 60/45/45 72/67/67
f 72/67/67 60/45/45 14/25/25
f 23/72/72 75/71/71 74/70/70
f 75/71/71 15/28/28 55/47/47
f 75/71/71 55/47/47 74/70/70
f 74/70/70 55/47/47 10/46/46
f 24/75/75 77/74/74 76/73/73
f 77/74/74 11/50/50 61/49/49
f 77/74/74 61/49/49 76/73/73
f 76/73/73 61/49/49 15/28/28
f 25/78/78 79/77/77 78/76/76
f 79/77/77 16/31/31 56/51/51
f 79/77/77 56/51/51 78/76/76
f 78/76/76 56/51/51 11/50/50
f 26/81/81 81/80/80 80/79/79
f 81/80/80 7/34/34 57/33/33
f 81/80/80 57/33/33 80/79/79
f 80/79/79 57/33/33 16/31/31
f 7/34/34 81/80/80 62/52/52
f 81/80/80 26/81/81 91/82/82
f 81/80/80 91/82/82 62/52/52
f 62/52/52 91/82/82 17/54/54
f 12/19/19 63/53/53 64/55/55
f 63/53/53 17/54/54 82/83/83
f 63/53/53 82/83/83 64/55/55
f 64/55/55 82/83/83 18/57/57
f 8/38/38 65/56/56 66/58/58
f 65/56/56 18/57/57 83/84/84
f 65/56/56 83/84/84 66/58/58
f 66/58/58 83/84/84 19/60/60
f 13/22/22 67/59/59 68/61/61
f 67/59/59 19/60/60 84/85/85
f 67/59/59 84/85/85 68/61/61
f 68/61/61 84/85/85 20/63/63
f 9/42/42 69/62/62 70/64/64
f 69/62/62 20/63/63 85/86/86
f 69/62/62 85/86/86 70/64/64
f 70/64/64 85/86/86 21/66/66
f 14/25/25 71/65/65 72/67/67
f 71/65/65 21/66/66 86/87/87
f 71/65/65 86/87/87 72/67/67
f 72/67/67 86/87/87 22/69/69
f 10/46/46 73/68/68 74/70/70
f 73/68/68 22/69/69 87/88/88
f 73/68/68 87/88/88 74/70/70
f 74/70/70 87/88/88 23/72/72
f 15/28/28 75/71/71 76/73/73
f 75/71/71 23/72/72 88/89/89
f 75/71/71 88/89/89 76/73/73
f 76/73/73 88/89/89 24/75/75
f 11/50/50 77/74/74 78/76/76
f 77/74/74 24/75/75 89/90/90
f 77/74/74 89/90/90 78/76/76
f 78/76/76 89/90/90 25/78/78
f 16/31/31 79/77/77 80/79/79
f 79/77/77 25/78/78 90/91/91
f 79/77/77 90/91/91 80/79/79
f 80/79/79 90/91/91 26/81/81
f 93/2/94 92/3/93 94/1/92
f 95/5/96 93/2/94 96/4/95
f 96/4/95 93/2/94 94/1/92
f 96/4/95 94/1/92 97/6/97
f 94/1/92 92/3/93 98/7/98
f 97/6/97 94/1/92 99/8/99
f 99/8/99 94/1/92 98/7/98
f 99/8/99 98/7/98 100/9/100
f 98/7/98 92/3/93 101/10/101
f 100/9/100 98/7/98 102/11/102
f 102/11/102 98/7/98 101/10/101
f 102/11/102 101/10/101 103/12/103
f 101/10/101 92/3/93 104/13/104
f 103/12/103 101/10/101 105/14/105
f 105/14/105 101/10/101 104/13/104
f 105/14/105 104/13/104 106/15/106
f 104/13/104 92/3/93 93/2/94
f 106/15/106 104/13/104 107/16/107
f 107/16/107 104/13/104 93/2/94
f 107/16/107 93/2/94 95/5/96
f 109/18/110 108/19/109 110/17/108
f 97/6/97 109/18/110 96/4/95
f 96/4/95 109/18/110 110/17/108
f 96/4/95 110/17/108 95/5/96
f 112/21/113 111/22/112 113/20/111
f 100/9/100 112/21/113 99/8/99
f 99/8/99 112/21/113 113/20/111
f 99/8/99 113/20/111 97/6/97
f 115/24/116 114/25/115 116/23/114
f 103/12/103 115/24/116 102/11/102
f 102/11/102 115/24/116 116/23/114
f 102/11/102 116/23/114 100/9/100
f 118/27/119 117/28/118 119/26/117
f 106/15/106 118/27/119 105/14/105
f 105/14/105 118/27/119 119/26/117
f 105/14/105 119/26/117 103/12/103
f 121/30/122 120/31/121 122/29/120
f 95/5/96 121/30/122 107/16/107
f 107/16/107 121/30/122 122/29/120
f 107/16/107 122/29/120 106/15/106
f 121/30/122 95/5/96 123/32/123
f 120/31/121 121/30/122 124/33/124
f 124/33/124 121/30/122 123/32/123
f 124/33/124 123/32/123 125/34/125
f 123/32/123 95/5/96 110/17/108
f 125/34/125 123/32/123 126/35/126
f 126/35/126 123/32/123 110/17/108
f 126/35/126 110/17/108 108/19/109
f 109/18/110 97/6/97 127/36/127
f 108/19/109 109/18/110 128/37/128
f 128/37/128 109/18/110 127/36/127
f 128/37/128 127/36/127 129/38/129
f 127/36/127 97/6/97 113/20/111
f 129/38/129 127/36/127 130/39/130
f 130/39/130 127/36/127 113/20/111
f 130/39/130 113/20/111 111/22/112
f 112/21/113 100/9/100 131/40/131
f 111/22/112 112/21/113 132/41/132
f 132/41/132 112/21/113 131/40/131
f 132/41/132 131/40/131 133/42/133
f 131/40/131 100/9/100 116/23/114
f 133/42/133 131/40/131 134/43/134
f 134/43/134 131/40/131 116/23/114
f 134/43/134 116/23/114 114/25/115
f 115/24/116 103/12/103 135/44/135
f 114/25/115 115/24/116 136/45/136
f 136/45/136 115/24/116 135/44/135
f 136/45/136 135/44/135 137/46/137
f 135/44/135 103/12/103 119/26/117
f 137/46/137 135/44/135 138/47/138
f 138/47/138 135/44/135 119/26/117
f 138/47/138 119/26/117 117/28/118
f 118/27/119 106/15/106 139/48/139
f 117/28/118 118/27/119 140/49/140
f 140/49/140 118/27/119 139/48/139
f 140/49/140 139/48/139 141/50/141
f 139/48/139 106/15/106 122/29/120
f 141/50/141 139/48/139 142/51/142
f 142/51/142 139/48/139 122/29/120
f 142/51/142 122/29/120 120/31/121
f 144/53/145 143/54/144 145/52/143
f 108/19/109 144/53/145 126/35/126
f 126/35/126 144/53/145 145/52/143
f 126/35/126 145/52/143 125/34/125
f 147/56/148 146/57/147 148/55/146
f 129/38/129 147/56/148 128/37/128
f 128/37/128 147/56/148 148/55/146
f 128/37/128 148/55/146 108/19/109
f 150/59/151 149/60/150 151/58/149
f 111/22/112 150/59/151 130/39/130
f 130/39/130 150/59/151 151/58/149
f 130/39/130 151/58/149 129/38/129
f 153/62/154 152/63/153 154/61/152
f 133/42/133 153/62/154 132/41/132
f 132/41/132 153/62/154 154/61/152
f 132/41/132 154/61/152 111/22/112
f 156/65/157 155/66/156 157/64/155
f 114/25/115 156/65/157 134/43/134
f 134/43/134 156/65/157 157/64/155
f 134/43/134 157/64/155 133/42/133
f 159/68/160 158/69/159 160/67/158
f 137/46/137 159/68/160 136/45/136
f 136/45/136 159/68/160 160/67/158
f 136/45/136 160/67/158 114/25/115
f 162/71/163 161/72/162 163/70/161
f 117/28/118 162/71/163 138/47/138
f 138/47/138 162/71/163 163/70/161
f 138/47/138 163/70/161 137/46/137
f 165/74/166 164/75/165 166/73/164
f 141/50/141 165/74/166 140/49/140
f 140/49/140 165/74/166 166/73/164
f 140/49/140 166/73/164 117/28/118
f 168/77/169 167/78/168 169/76/167
f 120/31/121 168/77/169 142/51/142
f 142/51/142 168/77/169 169/76/167
f 142/51/142 169/76/167 141/50/141
f 171/80/172 170/81/171 172/79/170
f 125/34/125 171/80/172 124/33/124
f 124/33/124 171/80/172 172/79/170
f 124/33/124 172/79/170 120/31/121
f 171/80/172 125/34/125 145/52/143
f 170/81/171 171/80/172 173/82/173
f 173/82/173 171/80/172 145/52/143
f 173/82/173 145/52/143 143/54/144
f 144/53/145 108/19/109 148/55/146
f 143/54/144 144/53/145 174/83/174
f 174/83/174 144/53/145 148/55/146
f 174/83/174 148/55/146 146/57/147
f 147/56/148 129/38/129 151/58/149
f 146/57/147 147/56/148 175/84/175
f 175/84/175 147/56/148 151/58/149
f 175/84/175 151/58/149 149/60/150
f 150/59/151 111/22/112 154/61/152
f 149/60/150 150/59/151 176/85/176
f 176/85/176 150/59/151 154/61/152
f 176/85/176 154/61/152 152/63/153
f 153/62/154 133/42/133 157/64/155
f 152/63/153 153/62/154 177/86/177
f 177/86/177 153/62/154 157/64/155
f 177/86/177 157/64/155 155/66/156
f 156/65/157 114/25/115 160/67/158
f 155/66/156 156/65/157 178/87/178
f 178/87/178 156/65/157 160/67/158
f 178/87/178 160/67/158 158/69/159
f 159/68/160 137/46/137 163/70/161
f 158/69/159 159/68/160 179/88/179
f 179/88/179 159/68/160 163/70/161
f 179/88/179 163/70/161 161/72/162
f 162/71/163 117/28/118 166/73/164
f 161/72/162 162/71/163 180/89/180
f 180/89/180 162/71/163 166/73/164
f 180/89/180 166/73/164 164/75/165
f 165/74/166 141/50/141 169/76/167
f 164/75/165 165/74/166 181/90/181
f 181/90/181 165/74/166 169/76/167
f 181/90/181 169/76/167 167/78/168
f 168/77/169 120/31/121 172/79/170
f 167/78/168 168/77/169 182/91/182
f 182/91/182 168/77/169 172/79/170
f 182/91/182 172/79/170 170/81/171

